<?xml version="1.0" standalone="no"?>
<!DOCTYPE svg PUBLIC "-//W3C//DTD SVG 1.1//EN" "http://www.w3.org/Graphics/SVG/1.1/DTD/svg11.dtd" >
<svg xmlns="http://www.w3.org/2000/svg">
<metadata>Generated by IcoMoon</metadata>
<defs>
<font id="abkrescue" horiz-adv-x="1024">
<font-face units-per-em="1024" ascent="960" descent="-64" />
<missing-glyph horiz-adv-x="1024" />
<glyph unicode="&#x20;" horiz-adv-x="512" d="" />
<glyph unicode="&#xe900;" glyph-name="world" d="M1007.8 481.146c-16.274 248.1-214.528 446.438-462.684 462.74v1.114h-66.262v-1.114c-248.1-16.302-446.438-214.64-462.74-462.74h-1.114v-66.264h1.114c16.302-248.16 214.64-446.41 462.74-462.684v-1.202h66.264v1.204c248.16 16.274 446.41 214.524 462.684 462.684h1.2v66.262h-1.202zM326.11 836.652c-32.004-42.54-58.556-95.9-77.914-156.71h-99.268c43.196 67.378 104.58 121.908 177.182 156.71zM114.268 613.676h116.484c-8.878-41.882-14.502-86.364-16.302-132.53h-131.93c3.512 46.652 14.532 91.246 31.748 132.53zM82.52 414.882h131.93c1.798-46.198 7.422-90.676 16.302-132.59h-116.484c-17.216 41.344-28.236 85.882-31.748 132.59zM148.928 216.058h99.21c19.33-60.81 45.91-114.2 77.97-156.684-72.6 34.776-133.984 89.192-177.18 156.684zM478.854 21.52c-68.122 18.214-126.762 91.36-162.336 194.54h162.336v-194.54zM478.854 282.292h-180.95c-9.366 41.344-15.246 85.878-17.16 132.59h198.11v-132.59zM478.854 481.146h-198.11c1.914 46.652 7.794 91.246 17.16 132.53h180.95v-132.53zM478.854 679.942h-162.336c35.574 103.18 94.214 176.326 162.336 194.482v-194.482zM875.042 679.942h-99.126c-19.414 60.812-45.91 114.172-78 156.71 72.52-34.802 133.96-89.332 177.126-156.71zM545.118 874.424c68.064-18.158 126.766-91.302 162.394-194.482h-162.394v194.482zM545.118 613.676h180.894c9.478-41.284 15.188-85.878 17.244-132.53h-198.138v132.53zM545.118 414.882h198.138c-1.942-46.708-7.766-91.246-17.244-132.59h-180.894v132.59zM545.118 21.52v194.54h162.394c-35.634-103.182-94.33-176.326-162.394-194.54zM697.918 59.374c31.976 42.598 58.586 95.874 78 156.684h99.126c-43.168-67.492-104.608-121.908-177.126-156.684zM909.76 282.292h-116.482c8.852 41.914 14.504 86.392 16.274 132.59h131.844c-3.432-46.708-14.446-91.246-31.636-132.59zM809.546 481.146c-1.77 46.166-7.422 90.646-16.274 132.53h116.484c17.188-41.284 28.208-85.878 31.748-132.53h-131.958z" />
<glyph unicode="&#xe901;" glyph-name="telephone" d="M397.506 692.368c-40.792-2.562-76.774-7.372-108.072-14.508-31.188-7.152-53.178-17.48-66.022-31.204 2.028-8.568 3.082-22.826 3.082-42.758v-19.634h-216.080c7.86 62.722 24.208 110.556 49.030 143.55 23.532 30.78 55.882 50.994 96.848 60.694 40.982 9.684 68.916 15.956 83.816 18.8 33.908 6.24 70.062 10.69 108.338 13.25 38.246 2.578 93.012 3.868 164.19 3.868 104.662 0 178.258-2.122 220.388-6.428 42.254-4.292 86.080-13.536 131.606-27.76 45.526-14.258 79.224-35.918 101.294-64.968 24.020-31.926 39.866-78.958 47.662-141.004h-212.782v10.234c0 23.926 0.694 41.28 2.388 52.158-13.204 14.226-35.9 24.884-68.348 32.036-32.256 7.122-66.462 11.806-102.932 14.1-36.536 2.248-76.082 3.412-119.216 3.412-36.088 0.060-74.46-1.26-115.19-3.838zM226.464 568.074v-36.8c0-17.638-8.724-26.488-26.11-26.488h-168.308c-4.528 0-9.212 2.862-14.226 8.552-4.952 5.738-7.404 11.726-7.404 17.936v36.8h216.048zM94.246 87.7v172.6c0 18.798 2.452 34.708 7.374 47.472 5.030 12.826 13.266 26.66 24.82 41.5l186.92 253.822v53.826h80.672l3.772-53.856h224.712v53.856h91.236v-58.1l193.004-249.546c14.526-17.764 23.484-31.626 27.006-41.972 3.55-10.152 5.346-25.938 5.346-47.032v-172.57c0-34.772-14.118-52.126-42.286-52.126h-764.174c-25.59 0-38.402 17.354-38.402 52.126zM617.83 300.676c29.416 29.556 44.146 65.162 44.146 106.98 0 40.93-14.778 75.864-44.376 104.99-29.624 29.15-64.664 43.69-105.14 43.69-41.074 0-76.412-14.78-106.046-44.314-29.602-29.582-44.436-64.418-44.436-104.364 0-41.818 14.742-77.424 44.206-106.98 29.416-29.654 64.892-44.34 106.23-44.34 40.844-0.002 75.954 14.78 105.416 44.338zM1013.588 531.274c0-6.822-1.98-12.938-5.876-18.344-3.96-5.408-8.176-8.142-12.734-8.142h-171.97c-5.344 0-10.438 2.436-15.216 7.262-4.712 4.842-7.23 11.24-7.23 19.224v36.832h212.906v-36.8l0.12-0.032z" />
<glyph unicode="&#xe902;" glyph-name="envelope" d="M512 284.492l-125.13 109.528-357.784-306.68c13.016-12.086 30.562-19.582 49.912-19.582h866.004c19.292 0 36.784 7.496 49.738 19.582l-357.58 306.68-125.16-109.528zM994.914 770.66c-13.016 12.144-30.504 19.582-49.912 19.582h-866.004c-19.292 0-36.782-7.496-49.768-19.728l482.77-413.8 482.914 413.946zM6.25 726.82v-600.262l349.184 296.746zM668.536 423.304l349.214-296.746v600.466z" />
<glyph unicode="&#xe903;" glyph-name="search" d="M971.066 34.014l-239.87 249.422c61.708 73.342 95.512 165.548 95.512 261.548 0 224.33-182.566 406.838-406.87 406.838-224.33 0-406.838-182.508-406.838-406.838s182.508-406.838 406.838-406.838c84.222 0 164.448 25.412 233.1 73.626l241.61-251.332c10.126-10.476 23.73-16.266 38.262-16.266 13.776 0 26.858 5.27 36.756 14.818 21.066 20.262 21.76 53.954 1.5 75.022zM419.836 845.692c165.838 0 300.708-134.898 300.708-300.708 0-165.808-134.87-300.736-300.708-300.736-165.808 0-300.708 134.928-300.708 300.736 0.002 165.81 134.9 300.708 300.708 300.708z" />
<glyph unicode="&#xe904;" glyph-name="facebook" d="M0 960v-1024h545.354v395.532h-133.324v161.5h133.324v135.618c0 98.618 79.944 178.558 178.53 178.558h139.414v-145.208h-99.766c-31.294 0-56.708-25.412-56.708-56.736v-112.236h153.942l-21.234-161.5h-132.708v-395.528h317.176v1024h-1024z" />
<glyph unicode="&#xe905;" glyph-name="twitter" d="M0 960v-1024h1024v1024h-1024zM793.882 592.588c0.234-6.264 0.41-12.53 0.41-18.824 0-192.236-146.292-413.822-413.792-413.822-82.148 0-158.588 24.056-222.97 65.352 11.382-1.352 22.97-2.058 34.706-2.058 68.148 0 130.852 23.234 180.618 62.292-63.618 1.176-117.352 43.176-135.852 101 8.882-1.706 18-2.644 27.352-2.644 13.264 0 26.118 1.82 38.324 5.118-66.53 13.352-116.678 72.146-116.678 142.616 0 0.618 0 1.236 0.030 1.824 19.618-10.882 42.030-17.412 65.882-18.176-39.030 26.088-64.706 70.588-64.706 121.058 0 26.648 7.176 51.618 19.676 73.118 71.734-88 178.912-145.912 299.794-151.97-2.47 10.646-3.764 21.764-3.764 33.146 0 80.324 65.088 145.442 145.442 145.442 41.822 0 79.646-17.646 106.12-45.942 33.176 6.53 64.292 18.648 92.41 35.294-10.88-33.942-33.942-62.442-63.942-80.442 29.412 3.5 57.412 11.324 83.532 22.882-19.532-29.146-44.182-54.764-72.592-75.264z" />
<glyph unicode="&#xe906;" glyph-name="instagram" d="M756.942 720.618h-80.588c-15.766-0.118-27.766-11.588-27.88-27.234-0.12-27.354-0.12-54.588 0-81.942 0.118-15.53 12.118-27.176 27.644-27.176h80.59c16.234 0 28.058 11.764 28.058 27.942 0.118 26.824 0.118 53.706 0 80.5 0 16.086-11.824 27.792-27.824 27.91zM512.208 311.646c75.38 0.12 136.264 61.056 136.264 136.412-0.12 75.382-61.12 136.206-136.5 136.206-75.118 0-136.088-61.030-136.206-136.088-0.118-75.468 60.97-136.53 136.442-136.53zM716.234 371.058c-16.352-43-43.532-77.532-81.41-103.412-68.356-46.706-157.648-50.588-229.472-10.058-36.294 20.53-64.764 49-84.646 85.766-27.236 50.234-33.5 103.38-19.736 158.852h-61.558v-298.206c0-17.118 11.646-28.708 28.706-28.708 10.942-0.12 21.794 0 32.736 0h454.324c18.47 0 29.59 11.292 29.59 29.708v297.324h-61.646c11.29-44.648 9.232-88.442-6.888-131.266zM0 960v-1024h1024v1024h-1024zM866.354 721.618v-547.442c0-40.292-31.12-75.352-71.178-80.058-3.176-0.352-6.234-0.586-9.41-0.586h-547.442c-39.618 0-74.47 30.468-79.736 69.706-0.646 4.532-1 9.236-1 13.822v542.236c0 40.854 27.354 74.148 67.53 81.824 4.824 0.912 9.854 1.236 14.766 1.236 181.53 0.118 363 0.118 544.47 0.118 42.47 0 77.47-31.588 81.822-73.824 0.292-2.326 0.178-4.68 0.178-7.032z" />
<glyph unicode="&#xe907;" glyph-name="linkedin" d="M554.532 500.088v1.5c-0.294-0.5-0.766-1-1-1.5h1zM0 960v-1024h1024v1024h-1024zM318.5 109.292h-151.912v457.060h151.912v-457.060zM242.53 628.764h-1c-50.97 0-84 35.088-84 78.97 0 44.852 34 78.97 86 78.97s83.97-34.118 84.97-78.97c0-43.882-32.97-78.97-85.97-78.97zM866.468 109.292h-152v244.532c0 61.41-21.942 103.352-76.942 103.352-42 0-66.942-28.234-77.942-55.588-4-9.764-5.058-23.354-5.058-37v-255.292h-152c0 0 2.058 414.174 0 457.056h152v-64.764c20.176 31.088 56.236 75.5 137 75.5 100 0 174.942-65.294 174.942-205.676v-262.12z" />
</font></defs></svg>