<?xml version="1.0" standalone="no"?>
<!DOCTYPE svg PUBLIC "-//W3C//DTD SVG 1.1//EN" "http://www.w3.org/Graphics/SVG/1.1/DTD/svg11.dtd" >
<svg xmlns="http://www.w3.org/2000/svg">
<metadata>Generated by IcoMoon</metadata>
<defs>
<font id="ms-2" horiz-adv-x="1024">
<font-face units-per-em="1024" ascent="960" descent="-64" />
<missing-glyph horiz-adv-x="1024" />
<glyph unicode="&#x20;" horiz-adv-x="512" d="" />
<glyph unicode="&#xe900;" glyph-name="facebook" d="M512 960c-282.316 0-512-229.684-512-512 0-282.295 229.684-512 512-512 282.295 0 512 229.705 512 512 0 282.316-229.664 512-512 512zM639.33 429.975h-83.298c0-133.084 0-296.896 0-296.896h-123.432c0 0 0 162.225 0 296.896h-58.674v104.933h58.674v67.872c0 48.61 23.098 124.566 124.566 124.566l91.465-0.351v-101.86c0 0-55.58 0-66.387 0s-26.171-5.403-26.171-28.584v-61.664h94.043l-10.786-104.912z" />
<glyph unicode="&#xe901;" glyph-name="google-plus" d="M443.406 363.155c-3.32 2.207-6.723 4.599-10.291 7.012-10.374 3.176-21.387 4.826-32.668 4.97h-1.361c-51.848 0-97.302-31.368-97.302-67.171 0-38.978 38.958-69.439 88.661-69.439 65.562 0 98.787 22.645 98.787 67.191 0 4.207-0.495 8.579-1.547 12.972-4.434 17.283-20.294 28.069-44.279 44.464zM406.676 499.023c0.041 0 0.041 0 0.041 0 12.395 0 22.851 4.888 30.956 14.168 12.704 14.478 18.334 38.236 14.993 63.459-5.878 45.083-38.112 82.618-71.749 83.587l-1.341 0.041c-11.9 0-22.521-4.908-30.585-14.148-12.518-14.292-17.819-36.937-14.54-62.118 5.898-45.042 38.814-83.958 71.749-84.99h0.474zM512 960c-282.316 0-512-229.684-512-512 0-282.295 229.684-512 512-512 282.295 0 512 229.705 512 512 0 282.316-229.664 512-512 512zM452.975 198.682c-19.345-5.589-40.278-8.414-62.242-8.414-24.46 0-47.97 2.805-69.893 8.353-42.423 10.704-73.77 30.997-88.413 57.148-6.311 11.302-9.507 23.346-9.507 35.823 0 12.848 3.073 25.883 9.136 38.793 23.243 49.538 84.515 82.865 152.387 82.865 0.681 0 1.32 0 1.939 0-5.506 9.714-8.167 19.778-8.167 30.358 0 5.259 0.701 10.621 2.104 16.086-71.192 1.609-124.463 53.745-124.463 122.483 0 48.527 38.793 95.817 94.27 114.914 16.602 5.733 33.534 8.662 50.177 8.662h152.243c5.177 0 9.776-3.362 11.384-8.291 1.609-4.908-0.165-10.312-4.352-13.343l-34.049-24.645c-2.042-1.444-4.496-2.227-7.033-2.227h-12.189c15.736-18.871 24.954-45.784 24.954-75.998 0-33.348-16.87-64.882-47.579-88.908-23.717-18.479-24.645-23.573-24.645-34.111 0.289-5.795 16.808-24.707 35.039-37.597 42.464-30.028 58.262-59.499 58.262-108.665-0.021-51.373-39.020-95.755-99.364-113.285zM796.79 459.817c0-6.6-5.383-11.962-11.962-11.962h-86.516v-86.557c0-6.6-5.383-11.962-11.92-11.962h-24.645c-6.641 0-12.003 5.362-12.003 11.962v86.557h-86.454c-6.6 0-11.962 5.321-11.962 11.962v24.604c0 6.6 5.362 12.003 11.962 12.003h86.454v86.475c0 6.62 5.362 11.962 12.003 11.962h24.645c6.538 0 11.92-5.341 11.92-11.962v-86.475h86.495c6.579 0 11.962-5.362 11.962-11.962v-24.645z" />
<glyph unicode="&#xe902;" glyph-name="instagram" d="M511.979 345.501c56.488 0 102.54 45.97 102.54 102.499 0 22.315-7.301 42.918-19.386 59.746-18.623 25.821-48.898 42.753-83.092 42.753-34.214 0-64.469-16.911-83.133-42.732-12.127-16.829-19.366-37.432-19.386-59.746-0.062-56.529 45.949-102.52 102.458-102.52zM735.807 573.391v98.704l-98.725-0.309 0.33-98.725zM512 960c-282.316 0-512-229.684-512-512 0-282.295 229.684-512 512-512 282.295 0 512 229.705 512 512 0 282.316-229.664 512-512 512zM803.184 507.746v-238.408c0-62.097-50.486-112.563-112.543-112.563h-357.282c-62.077 0-112.543 50.466-112.543 112.563v357.282c0 62.077 50.466 112.543 112.543 112.543h357.262c62.077 0 112.563-50.466 112.563-112.543v-118.874zM671.276 448c0-87.794-71.44-159.276-159.276-159.276s-159.255 71.481-159.255 159.276c0 21.119 4.207 41.309 11.714 59.746h-86.928v-238.408c0-30.812 25.016-55.766 55.807-55.766h357.262c30.75 0 55.807 24.954 55.807 55.766v238.408h-86.969c7.569-18.437 11.838-38.628 11.838-59.746z" />
<glyph unicode="&#xe903;" glyph-name="twitter" d="M512 960c-282.316 0-512-229.684-512-512 0-282.295 229.684-512 512-512 282.295 0 512 229.705 512 512 0 282.316-229.664 512-512 512zM740.406 565.183c0.227-5.073 0.351-10.188 0.351-15.303 0-155.728-118.503-335.236-335.318-335.236-66.552 0-128.505 19.448-180.642 52.899 9.219-1.093 18.602-1.65 28.11-1.65 55.23 0 106.026 18.85 146.365 50.445-51.559 0.949-95.095 35.019-110.088 81.855 7.177-1.361 14.581-2.124 22.15-2.124 10.745 0 21.18 1.402 31.059 4.104-53.91 10.807-94.518 58.426-94.518 115.554 0 0.495 0 1.011 0.021 1.485 15.88-8.806 34.049-14.127 53.353-14.725-31.595 21.098-52.404 57.189-52.404 98.065 0 21.613 5.795 41.866 15.942 59.272 58.097-71.316 144.963-118.214 242.883-123.164-2.021 8.641-3.032 17.613-3.032 26.872 0 65.067 52.755 117.843 117.822 117.843 33.905 0 64.49-14.313 86.021-37.205 26.872 5.28 52.033 15.055 74.863 28.605-8.868-27.532-27.491-50.61-51.889-65.212 23.861 2.846 46.63 9.157 67.686 18.541-15.715-23.593-35.699-44.361-58.736-60.922z" />
<glyph unicode="&#xe904;" glyph-name="kidney" d="M847.082 919.714c-98.591 82.121-165.758 19.469-196.791-18.99-40.501-50.151-21.234-121.416 2.237-150.859 14.974-18.734 25.163-35.164 31.936-49.855-13.876-2.709-29.928-8.612-46.829-20.615-61.035-43.385-103.032-141.68-125.621-293.59-22.616 151.91-64.566 250.204-125.594 293.59-16.908 12.056-32.913 17.939-46.849 20.648 6.779 14.698 16.908 31.087 31.936 49.821 23.445 29.443 42.752 100.707 2.264 150.859-31.067 38.459-98.214 101.112-196.812 18.99-82.013-68.353-202.998-272.82-88.57-418.099 37.678-47.813 131.929-112.487 243.149-9.623 0 0 58.407 64.108 13.876 120.163-8.289 10.452-14.677 22.737-16.295 37.664 8.302-1.489 18.236-4.717 29.746-13.35 33.83-25.352 81.784-95.848 106.213-286.649-55.313-13.613-95.228-50.226-95.228-93.631 0-47.045 46.755-86.333 109.353-96.758 1.86-58.777 2.237-123.647 0.243-197.317l-0.681-26.114h66.365l-0.681 26.114c-1.988 73.603-1.611 138.546 0.236 197.317 62.524 10.358 109.32 49.633 109.32 96.758 0 43.399-39.895 80.019-95.195 93.631 24.436 190.8 72.484 261.263 106.22 286.649 11.584 8.633 21.538 11.935 29.759 13.404-1.604-14.987-7.925-27.306-16.295-37.765-44.531-56.014 13.869-120.156 13.869-120.156 111.233-102.864 205.471-38.19 243.169 9.623 114.556 145.319-6.429 349.786-88.449 418.14z" />
<glyph unicode="&#xe905;" glyph-name="brain" d="M1018.603 624.686c13.518 42.088 1.538 95.165-35.165 136.263-15.934 17.802-34.505 31.319-54.065 40.11-5.604 9.231-12.309 18.242-19.89 26.813-32.857 36.813-76.263 56.593-116.155 56.813-27.912 21.429-65.603 37.692-108.46 44.395-33.736 5.275-66.264 3.956-94.725-2.637-24.725 10.769-53.846 15.165-84.395 11.319-31.757-4.066-59.89-16.374-81.428-34.066-34.066 15.385-77.912 16.264-119.67-0.989-35.934-14.835-63.516-40.11-79.121-69.231-27.912-6.154-56.154-20.989-80.22-44.066-34.176-32.747-52.198-74.725-52.088-112.967-41.538-23.077-67.912-62.747-66.044-105.055-11.099-16.923-19.45-36.813-23.846-58.681-7.582-37.912-1.868-74.614 13.516-103.626-1.099-64.066 34.835-119.34 88.901-130.109 3.516-0.659 7.033-1.209 10.549-1.537-1.868-13.298-1.648-26.813 1.099-40.33 15.494-78.132 105.164-126.153 200.329-107.252 4.285 0.879 8.571 1.867 12.747 2.966v0c14.176-22.746 43.626-12.967 43.626-12.967v-84.176c0-9.011 3.407-17.582 9.67-24.176l46.593-49.121c10.878-11.538 30.22-3.736 30.22 12.088v95.165c2.857 85.825 34.395 128.241 61.318 144.395 36.264 21.868 35.714 67.362 35.494 83.956 28.571-15.055 73.737-23.626 111.538-19.342 170.548 19.67 179.449 134.395 185.054 153.186 49.779-3.736 95.492 17.363 115.272 57.912 2.747 5.713 4.945 11.648 6.483 17.582 16.483 9.779 30.001 23.736 38.571 41.319 11.651 23.737 12.419 50.55 4.287 76.045z" />
<glyph unicode="&#xe906;" glyph-name="lungs" d="M714.829 807.964c-129.174 129.152-129.174-4.332-129.174-4.332v-222.454l-39.228 39.228v39.049h-68.919v-39.049l-39.228-39.228v222.454c0 0 0 133.484-129.152 4.332 0 0-452.282-473.779-262.696-770.945 22.265-34.956 94.711-77.546 172.257 34.419 35.888 51.934 198.161-47.445 219.68 124.902v336.104l73.639 73.639 73.639-73.691v-336.096c21.527-172.257 183.703-72.916 219.71-124.947 77.546-111.92 150.060-69.329 172.265-34.366 189.459 297.159-262.793 770.983-262.793 770.983zM477.507 896.956h68.919v-39.728h-68.919v39.728zM477.507 817.822h68.919v-39.661h-68.919v39.661zM477.507 738.598h68.919v-39.571h-68.919v39.571z" />
<glyph unicode="&#xe907;" glyph-name="stomach" d="M2.989-64h117.124c4.81 25.935 9.83 52.915 14.641 78.85 8.993 45.595 21.961 97.464 74.667 108.967 61.49 12.967 118.588-45.595 154.353-69.856 89.307-63.373 203.922-82.824 313.725-73.203 216.261 13.386 286.954 182.797 318.536 281.098 11.294 34.928 71.32 276.706-48.732 461.595-52.497 92.654-157.49 116.706-255.163 58.562-27.608-21.124-47.895-55.216-88.68-52.078-62.954 0-75.503 109.804-70.693 147.869v82.196h-121.935v-158.536c-5.647-118.17 145.359-214.797 155.19-282.771 27.608-65.046-3.974-141.386-52.078-194.301-50.614-62.536-119.425-53.542-152.889-52.078-43.085 1.673-86.17 0.837-130.092-1.673-45.176-2.301-215.634-12.967-227.974-157.49v-177.15z" />
<glyph unicode="&#xe908;" glyph-name="accredited" d="M512.395 834.786v0c-0.132 0.033-0.263 0.033-0.395 0-0.132 0-0.263 0.033-0.395 0.033v-0.033c-169.761-2.074-307.322-140.721-307.322-310.976 0-170.288 137.561-308.869 307.322-310.976v-0.033c0.132 0 0.263 0 0.395 0.033 0.132 0 0.263-0.033 0.395-0.033v0.033c169.794 2.041 307.322 140.623 307.322 310.976 0.033 170.189-137.528 308.836-307.322 310.976zM876.908 262.451c8.956 13.005 15.014 26.735 17.615 39.905 2.799 13.861 2.041 26.867-1.613 38.028l-0.066 0.066c-0.066 0.23-0.132 0.494-0.198 0.691-0.198 0.428-0.395 0.889-0.461 1.35l-0.066 0.165c-4.807 13.697-5.4 30.653-1.712 48.103l-0.165 0.099c0.691 2.963 1.416 5.894 2.371 8.89 2.634 7.968 6.058 15.376 9.976 22.093 14.882 20.973 57.718 39.082 57.718 104.57 0 68.55-55.248 87.12-65.652 116.95-0.263 0.658-0.593 1.021-0.856 1.613-0.56 1.449-1.119 2.832-1.613 4.313-6.618 20.907-7.178 41.65-1.712 58.014l0.428 1.119c3.556 10.569 4.445 23.245 2.14 36.711h-0.033v0.099c-0.296 1.712-0.691 3.424-1.054 5.169l-0.033 0.527c-0.395 1.547-0.79 3.128-1.251 4.675l-0.362 1.185c-0.329 1.35-0.79 2.733-1.317 4.050l-0.658 1.778-1.284 3.26-0.988 2.568-0.988 2.107c-0.56 1.218-1.087 2.371-1.679 3.556l-0.296 0.56c-2.733 5.268-5.894 10.47-9.548 15.475l-0.658 0.889-0.362 0.461c-9.976 13.532-21.895 24.035-34.242 30.917-12.314 6.947-24.99 10.273-36.613 10.174h-0.132c-0.296 0-0.527 0-0.724 0.033-0.494-0.033-0.922-0.066-1.449-0.033h-0.198c-14.454-0.395-30.818 4.313-46.26 13.269l-0.099-0.099c-2.535 1.547-5.136 3.227-7.639 5.038-17.681 13.038-30.225 29.534-35.361 45.963l-0.395 1.185c-3.292 10.635-10.009 21.368-19.821 30.917v0.033c-1.251 1.251-2.568 2.469-3.918 3.589l-0.461 0.428c-1.218 1.021-2.436 2.074-3.721 3.062l-0.955 0.757-3.49 2.535-1.547 1.054-2.963 1.943-2.305 1.416-2.041 1.152c-1.152 0.691-2.305 1.284-3.457 1.877l-0.56 0.296c-5.235 2.667-10.865 5.038-16.792 6.947l-1.054 0.329-0.658 0.23c-16.002 5.005-31.838 6.486-45.897 4.84-14.059-1.679-26.274-6.387-35.592-13.4l-0.132-0.033c-0.198-0.198-0.428-0.329-0.658-0.461-0.329-0.362-0.691-0.626-1.152-0.856l-0.099-0.099c-11.557-8.89-27.459-14.619-45.272-16.528v-0.165c-1.613-0.165-3.26-0.198-4.873-0.23-1.646 0.033-3.292 0.033-4.873 0.23v0.132c-17.812 1.91-33.748 7.639-45.272 16.528l-0.099 0.099c-0.395 0.296-0.79 0.527-1.119 0.922-0.23 0.132-0.461 0.263-0.658 0.461l-0.099 0.033c-9.351 7.013-21.566 11.721-35.625 13.4-14.026 1.646-29.83 0.165-45.897-4.84l-0.626-0.23-1.054-0.362c-5.926-1.91-11.524-4.28-16.792-6.947l-0.56-0.296c-1.152-0.593-2.305-1.185-3.457-1.877l-2.041-1.152-2.305-1.416-2.963-1.943-1.547-1.054-3.424-2.469-0.988-0.79c-1.284-0.988-2.502-2.008-3.721-3.029l-0.461-0.428c-1.35-1.119-2.667-2.338-3.918-3.589l-0.033-0.033c-9.812-9.548-16.495-20.315-19.788-30.917l-0.395-1.218c-5.103-16.43-17.648-32.958-35.329-45.963-2.535-1.877-5.169-3.523-7.672-5.070l-0.132 0.132c-15.442-8.956-31.773-13.664-46.227-13.302h-0.198c-0.527-0.033-0.988 0-1.449 0.033-0.296-0.033-0.461-0.033-0.79-0.033h-0.099c-11.688 0.099-24.299-3.194-36.613-10.141-12.347-6.881-24.266-17.384-34.242-30.917l-0.395-0.494-0.658-0.922c-3.688-4.972-6.815-10.207-9.548-15.475l-0.296-0.527c-0.56-1.185-1.119-2.338-1.646-3.556l-0.988-2.107-1.021-2.568-1.284-3.292-0.593-1.745c-0.494-1.317-0.955-2.7-1.317-4.017l-0.362-1.218c-0.461-1.515-0.922-3.095-1.251-4.675l-0.099-0.56c-0.395-1.712-0.823-3.49-1.087-5.136v-0.066c-2.305-13.499-1.416-26.142 2.173-36.744l0.395-1.119c5.466-16.364 4.906-37.106-1.712-58.014-0.461-1.449-1.054-2.832-1.613-4.28-0.296-0.593-0.626-0.988-0.856-1.613-10.404-29.83-65.652-48.4-65.652-116.95 0-65.488 42.835-83.597 57.718-104.57 3.918-6.717 7.309-14.125 9.976-22.093 0.955-2.996 1.712-5.926 2.371-8.89l-0.165-0.099c3.721-17.45 3.161-34.407-1.679-48.103l-0.066-0.165c-0.066-0.461-0.263-0.922-0.461-1.35-0.066-0.263-0.132-0.527-0.198-0.691l-0.066-0.066c-3.688-11.162-4.412-24.167-1.613-38.028 2.601-13.137 8.659-26.9 17.615-39.905l-121.131-226.952h129.198l65.619-99.499 111.649 183.853c0.889-0.889 1.482-1.975 2.436-2.832 10.404-9.515 24.101-17.615 40.103-22.85 5.926-1.943 11.853-3.325 17.681-4.247l0.593-0.099c1.35-0.198 2.634-0.329 3.885-0.494l2.436-0.329 2.7-0.23 3.49-0.23h7.342c1.613 0.099 3.26 0.165 4.807 0.329l0.593 0.033c1.811 0.165 3.556 0.461 5.334 0.691h0.033c13.532 2.008 25.253 6.75 34.176 13.433l0.955 0.691c13.203 9.845 32.135 15.639 52.976 16.265 20.842-0.658 39.773-6.42 52.976-16.265l0.922-0.691c8.923-6.684 20.644-11.491 34.209-13.433v0c1.811-0.23 3.523-0.527 5.334-0.691l0.626-0.033c1.58-0.165 3.227-0.23 4.807-0.329h7.342l3.49 0.23 2.7 0.23 2.436 0.329c1.251 0.165 2.535 0.296 3.885 0.494l0.593 0.099c5.861 0.922 11.754 2.305 17.681 4.247 15.969 5.235 29.665 13.335 40.136 22.85 0.922 0.856 1.547 1.943 2.404 2.832l111.682-183.853 65.587 99.466h129.198l-121.131 226.952zM831.603 428.788c-3.622-12.248-7.869-24.233-12.907-36.053-16.989-40.103-41.222-76.123-72.139-107.039-30.884-30.884-66.871-55.215-106.94-72.106-40.465-17.088-83.333-25.846-127.584-26.307-44.218 0.461-87.12 9.219-127.551 26.307-40.103 16.989-76.090 41.222-106.973 72.106-30.917 30.884-55.215 66.936-72.139 107.039-5.005 11.754-9.252 23.805-12.907 36.053-4.017 14.685-13.565 53.898-13.565 94.989 0 52.054 13.565 94.989 13.565 94.989 3.622 12.215 7.869 24.233 12.907 36.086 16.956 40.103 41.255 76.057 72.172 106.973 30.884 30.884 66.871 55.182 106.973 72.139 40.465 17.088 83.333 25.846 127.551 26.274 44.218-0.428 87.12-9.186 127.584-26.274 40.070-16.956 76.090-41.255 106.94-72.139 30.917-30.917 55.248-66.904 72.139-106.973 5.005-11.82 9.252-23.871 12.907-36.086 0 0 13.565-42.934 13.565-94.989-0.033-41.090-9.581-80.304-13.598-94.989z" />
<glyph unicode="&#xe909;" glyph-name="first-aid-kit" d="M70.737-24.465c0-21.835 17.668-39.567 39.503-39.567h141.182c21.835 0 39.535 17.733 39.535 39.567v20.478h459.464v-20.478c0-21.835 17.668-39.567 39.535-39.567h141.085c21.867 0 39.6 17.733 39.6 39.567v20.478c26.809 0 48.514 21.738 48.514 48.547v656.687c0 49.063-39.729 88.824-88.824 88.824h-185.078v81.105c0 49.063-39.729 88.824-88.824 88.824h-311.241c-46.221 0-83.656-37.468-83.656-83.689v-86.24h-167.862c-49.063 0-88.824-39.761-88.824-88.824v-639.342c0-36.37 29.49-65.892 65.892-65.892v-20.478zM348.159 830.284c0 22.804 18.475 41.279 41.279 41.279h227.746c22.836 0 41.279-18.475 41.279-41.279v-40.213h-310.336l0.032 40.213zM304.813 418.333c0 30.136 24.354 54.49 54.457 54.49h77.326v77.326c0 30.103 24.354 54.457 54.457 54.457h24.612c30.071 0 54.49-24.354 54.49-54.457v-77.326h77.326c30.039 0 54.457-24.354 54.457-54.49v-22.836c0-30.136-24.419-54.522-54.457-54.522h-77.326v-78.973c0-30.136-24.419-54.522-54.49-54.522h-24.612c-30.071 0-54.457 24.386-54.457 54.522v78.973h-77.326c-30.071 0-54.457 24.386-54.457 54.522v22.836z" />
<glyph unicode="&#xe90a;" glyph-name="location" d="M578.060 677.494c0 15.432-12.532 27.964-27.996 27.964h-80.606c-15.432 0-27.964-12.532-27.964-27.964v-76.74h-81.282c-15.432 0-27.964-12.532-27.964-27.964v-80.573c0-15.432 12.532-27.996 27.964-27.996h81.282v-81.282c0-15.432 12.532-27.996 27.964-27.996h80.606c15.432 0 27.996 12.597 27.996 27.996v81.25h76.707c15.432 0 27.996 12.564 27.996 27.996v80.573c0 15.432-12.532 27.964-27.996 27.964h-76.707v76.772zM512.048 960c-222.132 0-402.867-180.67-402.867-402.77 0-296.939 351.578-595.425 366.527-607.989 19.781-16.656 48.325-17.687 69.33-2.61 15.077 10.857 369.813 269.974 369.813 610.598-0.032 222.1-180.734 402.77-402.802 402.77zM557.667 105.104c-24.195-22.648-62.017-21.811-85.18 1.933-106.185 108.473-250.322 291.269-250.322 450.257 0 159.761 130.058 289.819 289.884 289.819 159.761 0 289.819-130.058 289.819-289.819-0.032-192.558-148.615-362.693-244.201-452.19z" />
<glyph unicode="&#xe90b;" glyph-name="calendar" d="M844.108 876.972v-83.028h-11.071v166.056h-99.631v-83.028h-442.812v-83.028h-11.069v166.056h-99.635v-83.028h-138.377v-940.972h940.974v940.972h-138.379zM885.621 627.891v-586.581h-747.242v586.581h747.242zM235.243 572.54h138.379v-138.377h-138.379v138.377zM442.812 572.54h138.379v-138.377h-138.379v138.377zM650.378 572.54h138.379v-138.377h-138.379v138.377zM235.243 378.809h138.379v-138.377h-138.379v138.377zM442.812 378.809h138.379v-138.377h-138.379v138.377zM650.378 378.809h138.379v-138.377h-138.379v138.377z" />
<glyph unicode="&#xe90c;" glyph-name="search" d="M991.284 27.298l-243.714 253.474c62.663 74.491 96.997 168.216 96.997 265.788 0 227.967-185.473 413.44-413.44 413.44s-413.44-185.473-413.44-413.44 185.473-413.44 413.44-413.44c85.582 0 167.137 25.813 236.865 74.815l245.565-255.398c10.264-10.66 24.069-16.538 38.863-16.538 14.003 0 27.287 5.339 37.371 15.046 21.427 20.618 22.11 54.808 1.492 76.253zM431.128 852.146c168.504 0 305.586-137.082 305.586-305.586s-137.082-305.586-305.586-305.586-305.586 137.082-305.586 305.586 137.082 305.586 305.586 305.586z" />
<glyph unicode="&#xe90d;" glyph-name="stethoscope" d="M943.992 666.665c-24.899 24.885-55.119 37.33-90.679 37.33-35.544 0-65.764-12.446-90.665-37.33-24.882-24.892-37.323-55.109-37.323-90.672 0-27.553 7.885-52.226 23.661-73.995 15.79-21.784 36.336-37.328 61.673-46.666v-263.337c0-47.114-20.896-87.34-62.666-120.67-41.776-33.328-91.991-49.998-150.666-49.998-58.661 0-108.888 16.67-150.669 49.998-41.774 33.328-62.666 73.556-62.666 120.67v87.998c72.893 8.885 133.779 37.34 182.673 85.343 48.889 47.992 73.339 103.996 73.339 168.004v341.32c0 11.554-4.233 21.559-12.675 30.005-8.437 8.434-18.456 12.665-30.015 12.665-2.653 0-6.216-0.451-10.657-1.336-7.561 13.34-17.996 23.993-31.341 32.004-13.312 8.005-27.768 12-43.322 12-23.549 0-43.661-8.343-60.33-24.999-16.67-16.67-25.001-36.782-25.001-60.34 0-23.549 8.331-43.663 25.001-60.33s36.782-25.001 60.33-25.001c14.666 0 28.884 3.995 42.666 12v-267.997c0-47.119-20.887-87.335-62.663-120.675-41.781-33.323-92.008-49.984-150.669-49.984s-108.888 16.663-150.666 49.984c-41.774 33.33-62.666 73.549-62.666 120.675v267.997c13.772-8.002 28.004-12 42.668-12 23.549 0 43.663 8.331 60.33 25.001 16.665 16.67 24.994 36.782 24.994 60.33 0 23.556-8.329 43.67-24.994 60.34-16.67 16.656-36.784 24.999-60.333 24.999-15.558 0-30.005-3.995-43.338-12-13.328-8.002-23.778-18.662-31.329-32.004-4.451 0.883-8.002 1.336-10.671 1.336-11.563 0-21.559-4.231-30.005-12.665-8.441-8.446-12.665-18.452-12.665-30.005v-341.332c0-63.999 24.439-119.988 73.332-167.995 48.891-48.004 109.78-76.459 182.668-85.353v-87.996c0-70.672 29.223-131.003 87.671-180.994 58.448-50 128.778-74.995 210.99-74.995 82.243 0 152.562 24.994 211.008 74.995 58.46 49.991 87.66 110.321 87.66 180.994v263.346c25.345 9.338 45.898 24.885 61.673 46.666 15.79 21.772 23.687 46.444 23.687 73.995-0.007 35.551-12.448 65.783-37.351 90.672zM883.344 545.995c-8.455-8.446-18.459-12.665-30.015-12.665s-21.545 4.219-29.998 12.665c-8.439 8.444-12.658 18.442-12.658 29.998 0 11.554 4.219 21.559 12.658 30.005 8.453 8.434 18.442 12.665 29.998 12.665s21.557-4.231 30.015-12.665c8.439-8.446 12.658-18.452 12.658-30.005 0-11.563-4.219-21.555-12.658-29.998z" />
</font></defs></svg>