
    /*
     * JP
     * Announcements
     *
     */
    public function announcementsAction(){
        $this->view->menu = $this->_menuActive('annrole');
        $numberPage = 1;
        if($this->request->isPost() && $this->security->getSessionToken() != $this->request->getPost('csrf')){
            Tag::resetInput();
        }elseif ($this->request->isPost() && $this->request->getPost('action') == "delete") {
            $id = $this->request->getPost('recordID');
            if(!empty($id)){
                $this->_deleteAnn($id);
            }
        }elseif($this->request->isPost() && $this->request->getPost('action') == "delete_selected"){
            $id = $this->request->getPost('tbl_id');
            if(!empty($id)){
                $this->_deleteAnn($id);
            }
        }elseif($this->request->isPost() && $this->request->getPost('action') == "edit"){
            $id = $this->request->getPost('recordID');
            if(!empty($id)){
                return $this->dispatcher->forward(array(
                    'controller' => 'admin',
                    'action' => 'editannouncement',
                    'params' => array($id)
                    ));
            }
        }elseif($this->request->isPost() && $this->request->getPost('clear_search')){
            $this->session->remove("ann_search_text");
            $this->persistent->searchAnnParams = null;
            unset($_POST);
        }else{
            if ($this->request->isPost()) {
                $keyword = $this->request->getPost('search_text');
                $query = Criteria::fromInput($this->di, 'Tblannouncements', array('annTitle' => $keyword));
                $this->persistent->searchAnnParams = $query->getParams();
                $this->session->set("ann_search_text", $keyword);
            } else {
                $numberPage = $this->request->getQuery("page", "int");
            }
        }


        $parameters = array();
        if ($this->persistent->searchAnnParams) {
            $parameters = $this->persistent->searchAnnParams;
        }
        $builder = $this->modelsManager->createBuilder()
        ->columns('annID, annTitle, annDate, annStart, annEnd')
        ->from('Tblannouncements');

        if(!empty($parameters)){
            $this->flash->notice('Search results for "<strong>' . $this->session->get("ann_search_text") .'</strong>"');
            $builder->andWhere($parameters['conditions'], $parameters['bind']);
        }

        $paginator = new Phalcon\Paginator\Adapter\QueryBuilder(array(
            "builder" => $builder,
            "order" => "annDate DESC",
            "limit"=> 10,
            "page" => $numberPage
            ));

        // Get the paginated results
        $this->view->page = $paginator->getPaginate();
    }

    /*
     * Add new annoucemnets
     */
    public function createannocementsAction(){
        $this->view->menu = $this->_menuActive('annrole');
        $form = new CreateannForm();
        $this->view->titleError = null;
        $this->view->contentError = null;

        if($this->request->isPost() && $this->request->getPost('ann_submit')){
            if($this->security->getSessionToken() == $this->request->getPost('csrf')){

                if ($form->isValid($this->request->getPost()) != false) {
                    $postcheck = Tblannouncements::findFirst('annTitle="'.$this->request->getPost('ann_title', 'striptags').'"');
                    if($postcheck==true){
                        $this->flash->error('Announcement title already taken.');
                    }else{
                        $startDate = strtotime($this->request->getPost('ann_start'));
                        $endDate = strtotime($this->request->getPost('ann_end'));

                        if($startDate > $endDate){
                            $this->flash->error("Invalid date duration, start date should not be greater than old date");
                        }else{
                            $ann = new Tblannouncements();
                            $ann->assign(array(
                                'annTitle' => $this->request->getPost('ann_title', 'striptags'),
                                'annDesc' => $this->request->getPost('ann_content'),
                                'annStart' => $startDate,
                                'annEnd' => $endDate,
                                'annDate'=>time()
                                ));
                            if (!$ann->save()) {
                                $this->flash->error($ann->getMessages());
                            } else {
                                $this->flash->success("Announcement was created successfully.");
                                Tag::resetInput();
                            }
                        }

                    }
                }

            }else{
                Tag::resetInput();
            }
        }

        $this->view->form = $form;
    }

    /*
     * View announcement
     */

    public function viewannouncementAction($id){
        $this->view->menu = $this->_menuActive('annrole');
        $ann = Tblannouncements::findFirst('annID='.$id);
        $this->view->ann = $ann;
    }

    /*
     * Edit announcement
     */

    public function editannouncementAction($id){
        $this->view->menu = $this->_menuActive('annrole');
        $form = new CreateannForm();
        $this->view->titleError = null;
        $this->view->contentError = null;
        $ann = Tblannouncements::findFirst('annID='.$id);
        $this->view->ann = $ann;

        if($this->request->isPost() && $this->request->getPost('ann_update')){
            if($this->security->getSessionToken() == $this->request->getPost('csrf')){
                if ($form->isValid($this->request->getPost()) != false) {

                    $annExist = false;
                    if($this->request->getPost("orig_title") != $this->request->getPost("ann_title")){
                        $annExist = Tblannouncements::findFirst('annTitle="'.$this->request->getPost('ann_title', 'striptags').'"');
                    }

                    if($annExist==true){
                        $this->flash->error('Announcement title already taken.');
                    }else{
                        $ann->assign(array(
                            'annTitle' => $this->request->getPost('ann_title', 'striptags'),
                            'annDesc' => $this->request->getPost('ann_content')
                            ));
                        if (!$ann->save()) {
                            $this->flash->error($ann->getMessages());
                        } else {
                            $this->flash->success("Announcement was updated successfully.");
                            Tag::resetInput();
                        }
                    }
                }
            }else{
                Tag::resetInput();
            }
        }
        $this->view->form = $form;
    }

    /*
     * delete announcement
     */



    /*
     * Partners
     */

    private function _createPartnerMenu($index = false, $curPartID = null){
        $userSess = $this->session->get('auth');
        $userID = $userSess['abk_id'];
        $userInfo = Tblusers::findFirst('userID='.$userID);
        if($userInfo->userLevel==2){
            $partnerInfo = Tblpartners::findFirst('userID='.$userID);
            $partnerID = $partnerInfo->partnerID;
            $partnerUserAdmin = false;
        }else{
            $partnerUserAdmin = true;
        }

        $AdminMenu = '
        <li><a href="/admin/createpartner">Create New Partner</a></li>
        <li><a href="/admin/partners">All ABK Partners</a></li>
        ';
        
        if(!$index){
            $menu = '';
            if($partnerUserAdmin){
                $this->view->showBackToList = true;
                $menu .= $AdminMenu;
            }else{
                if(!is_null($curPartID) && $partnerID != $curPartID){
                    $this->response->redirect('admin/partnersinfo/'.$partnerID);
                }else{
                    $menu .='
                    <li><a href="/admin/partnersinfo/'.$partnerID.'">Program Information</a></li>
                    <li><a href="/admin/partnersinfo/'.$partnerID.'/events">Current Events</a></li>
                    <li><a href="/admin/partnersPictures/'.$partnerID.'">Pictures</a></li>
                    ';
                    $this->view->showBackToList = false;
                }
            }

            return $menu;
        }else{
            if(!$partnerUserAdmin){
                $this->response->redirect('admin/partnersinfo/'.$partnerID);
            }else{
                $this->view->showBackToList = true;
                return $AdminMenu;
            }
        }
    }

    public function partnersAction(){

        $this->view->menu = $this->_menuActive('partrole', array('partnerIndex'=>true));


        if($this->request->isPost() && $this->security->getSessionToken() != $this->request->getPost('csrf')){
            Tag::resetInput();
        }elseif ($this->request->isPost() && $this->request->getPost('action') == "delete") {
            $id = $this->request->getPost('recordID');
            if(!empty($id)){
                $this->_deleteUser($id);
            }
        }elseif($this->request->isPost() && $this->request->getPost('action') == "delete_selected"){
            $id = $this->request->getPost('tbl_id');
            if(!empty($id)){
                $this->_deleteUser($id);
            }
        }elseif($this->request->isPost() && $this->request->getPost('action') == "edit"){
            $id = $this->request->getPost('recordID');
            if(!empty($id)){
                return $this->dispatcher->forward(array(
                    'controller' => 'admin',
                    'action' => 'editPartner',
                    'params' => array($id)
                    ));
            }
        }elseif($this->request->isPost() && $this->request->getPost('clear_search')){
            $this->session->remove("partner_search_text");
            unset($_POST);
        }else{
            if ($this->request->isPost()) {
                $keyword = $this->request->getPost('search_text');
                $this->session->set("partner_search_text", $keyword);
            }else{
                $searchtext = $this->session->get("partner_search_text");
                $keyword = !empty($searchtext)?$searchtext:'';
            }
        }

        if(!empty($keyword)){
            $where = ' AND (partnerName LIKE "%'.$keyword.'%" OR userName LIKE "%'.$keyword.'%" 
                OR CONCAT(userLastname, ", ", userFirstname) LIKE "%'.$keyword.'%" OR userLastname LIKE "%'.$keyword.'%" OR userFirstname LIKE "%'.$keyword.'%")';
$this->flash->notice('Search results for "<strong>' . $keyword .'</strong>"');
}else{
    $where = null;
} 


$numberPage = $this->request->getQuery("page", "int");
$numberPage = empty($numberPage)?1:$numberPage;

$phql = 'SELECT
Tblusers.userID,
Tblusers.userName,
CONCAT(Tblusers.userLastname, ", ",Tblusers.userFirstname) AS name,
Tblusers.dateCreated,
Tblusers.userPosition,
Tblusers.userStatus,
Tblpartners.partnerID,
Tblpartners.partnerName
FROM Tblusers
LEFT JOIN Tblpartners ON Tblpartners.userID = Tblusers.userID
WHERE userLevel = 2'.$where;
$result = $this->modelsManager->executeQuery($phql);

$dataArray = array();
foreach ($result as $key => $value) {            
    $dataArray[] = array(
        'userID'=>$value->userID,
        'username'=>$value->userName,
        'name'=>$value->name,
        'dateCreated'=>$value->dateCreated,
        'position'=>$value->userPosition,
        'status'=>$value->userStatus,
        'partnerID'=>$value->partnerID,
        'partnerName'=>$value->partnerName
        );
}


$paginator = new Phalcon\Paginator\Adapter\NativeArray(array(
    "data" => $dataArray,
    "limit"=> 10,
    "page" => $numberPage
    ));
$this->view->page = $paginator->getPaginate();


}

    /*
     * View partner Info
     */
    public function partnersinfoAction($id, $tab = null){
        $numberPage = $this->request->getQuery("page", "int");
        $numberPage = !empty($numberPage)?$numberPage:1;
        $this->view->menu = $this->_menuActive('partrole', array('partnerCurPartID'=>$id));
        $this->view->partnerID = $id;
        $partner = Tblpartners::findFirst('partnerID='.$id);
        $this->view->partner = $partner;

        $this->view->tab = $this->_partnersTab($id, $tab);
        if($tab == 'events'){

            $eventParameters = array();

            if($this->request->isPost() && $this->request->getPost('clear_search')){
                $this->session->remove("event_search_text");
                $this->persistent->searchEventParams = null;
                unset($_POST);
            }elseif($this->request->isPost() && $this->request->getPost('searchBtn')){
                if ($this->request->isPost()) {
                    $query = Criteria::fromInput($this->di, 'Tblpartnerevents', array('eventTitle' => $this->request->getPost('search_text'), 'partnerID'=>$id));
                    $this->persistent->searchEventParams = $query->getParams();
                    $this->session->set("event_search_text", $this->request->getPost('search_text'));
                }
            }elseif($this->request->isPost()){
                $delIDSingle = $this->filter->sanitize($this->request->getPost('delEventSingle'), array("int"));
                if(!empty($delIDSingle)){
                    $delEvent = Tblpartnerevents::findFirst('eventID='.$delIDSingle);
                    $delEvent->delete();
                    $this->flash->success("Event has been deleted successfully.");
                }elseif(!empty($this->request->getPost('tbl_id'))){
                    $param = null;
                    foreach ($this->request->getPost('tbl_id') as $eID) {
                        $delEvntID = $this->filter->sanitize($eID, array("int"));
                        $param .= 'eventID = '. $delEvntID . ' OR ';
                    }
                    $param = substr($param, 0, -4);
                    $delEvent = Tblpartnerevents::find($param);
                    $delEvent->delete();
                    $this->flash->success("Selected event(s) were deleted successfully.");
                }
            }

            
            if ($this->persistent->searchEventParams) {
                $eventParameters = $this->persistent->searchEventParams;
            }

            $builder = $this->modelsManager->createBuilder()
            ->columns('eventID, eventTitle, eventVenue, eventDate, dateCreated, partnerID')
            ->from('Tblpartnerevents')->where('partnerID = '.$id);

            if(!empty($eventParameters)){
                $this->flash->notice('Search results for "<strong>' . $this->session->get("event_search_text") .'</strong>"');
                $builder->andWhere($eventParameters['conditions'], $eventParameters['bind']);
            }

            $paginator = new Phalcon\Paginator\Adapter\QueryBuilder(array(
                "builder" => $builder,
                "limit"=> 10,
                "page" => $numberPage
                ));
            $this->view->page = $paginator->getPaginate();
            $this->view->pick("admin/partnerscurrentevents");

        }elseif($tab == 'edit'){
            if($this->request->isPost() && $this->request->getPost('saveInfo')){
                $partner->assign(array('partnerInfo'=>$this->request->getPost('partnerInfo')));
                $partner->save();
                $this->flash->success("Partner information updated successfully.");
            }
            $this->view->pick("admin/editPartnerInfo");
        }

    }

    public function editEventAction($eventID){
        $this->view->event = $event = Tblpartnerevents::findFirst('eventID='.$eventID);
        $id = $event->partnerID;

        $this->view->menu = $this->_menuActive('partrole');
        $this->view->partnerID = $id;
        $partner = Tblpartners::findFirst('partnerID='.$id);
        $this->view->partner = $partner;
        $this->view->tab = $this->_partnersTab($id, 'events');
        $form = new CreatepartnersForm(null, array('createPartnerEvent'=>true));

        if($this->request->isPost() && $this->request->getPost('savePartnerEvent')){
            if($this->security->getSessionToken() == $this->request->getPost('csrf')){
                if ($form->isValid($this->request->getPost()) != false) {
                    $error = false;
                    $data = array(
                        'eventDate'=>strtotime($this->request->getPost('event_date', 'striptags')),
                        'eventVenue'=>$this->request->getPost('event_venue', 'striptags'),
                        'eventDetails' => $this->request->getPost('event_details')
                        );
                    if($this->request->getPost('event_name', 'striptags')!= $this->request->getPost('orig_event_name')){


                        $eventExist = Tblpartnerevents::query()
                        ->where("eventTitle = :name:")
                        ->andWhere("partnerID = :partnerID:")
                        ->bind(array("name" => $this->request->getPost('event_name'), "partnerID"=>$id))
                        ->execute();

                        if($eventExist->count() == true){
                            $this->flash->error('Event title already exist');
                            $error = true;
                        }else{
                            $data['eventTitle'] = $this->request->getPost('event_name', 'striptags');
                        }
                    }


                    if(!$error){
                        $event->assign($data);
                        if (!$event->save()) {
                            $this->flash->error($event->getMessages());
                        } else {
                            $this->flash->success("Event updated successfully.");
                            Tag::resetInput();
                        }
                    }
                    
                }
            }else{
                Tag::resetInput();
            }
        }

        $this->view->evtForm = $form;
    }

    public function createAlbumAjaxAction($fetch = null){
        $this->view->disable();

        if($this->request->isPost() && $this->request->isAjax()){
            $response = array();
            if($fetch){
                $albums = Tblpartnersalbums::find();
                $response['albums'] = '';
                foreach ($albums as $key => $value) {
                    $response['albums'] .= '<option value="'.$value->albumID.'">'.$value->albumName.'</option>';
                }

            }else{
                $response['success'] = false;
                $response['message'] = 'Unable to save album name';
                if(!empty($_POST['partnerID']) && !empty($_POST['albumName'])){
                    $albumName = trim(filter_var($_POST['albumName'], FILTER_SANITIZE_STRING));
                    $partnerID = trim(filter_var($_POST['partnerID'], FILTER_SANITIZE_NUMBER_INT));

                    //$albumCheck = Tblpartnersalbums::findFirst('albumName="'.$albumName.'"');

                    $albumCheck = Tblpartnersalbums::query()
                    ->where("albumName = :name:")
                    ->andWhere("partnerID = :partnerID:")
                    ->bind(array("name" => $albumName, "partnerID"=>$partnerID))
                    ->execute();

                    if($albumCheck->count() == true){
                        $response['success'] = false;
                        $response['message'] = 'Album name already exist';
                    }else{
                        $picturesPath = '../public/img/assets/partnersPictures/';
                        if(!file_exists($picturesPath.$partnerID)){
                            mkdir($picturesPath.$partnerID);
                        }
                        $picturesPath .= $partnerID.'/';
                        if (strpbrk($albumName, "\\/?%*:|\"<>") === FALSE) {
                          if(mkdir($picturesPath.$albumName)){
                            if(mkdir($picturesPath.$albumName.'/thumbs')){
                                $album = new Tblpartnersalbums();
                                $album->assign(array(
                                    'partnerID' => $partnerID,
                                    'albumName' => $albumName,
                                    'dateCreated' => time()
                                    ));
                                $album->save();

                                $response['success'] = true;
                                $response['message'] = 'New album created';

                                $albums = Tblpartnersalbums::find();
                                $response['albums'] = '<option vale="">--Album--</option>';
                                foreach ($albums as $key => $value) {
                                    $response['albums'] .= '<option value="'.$value->albumID.'">'.$value->albumName.'</option>';
                                }
                            }else{
                                $response['success'] = false;
                                $response['message'] = 'Unable to create thumbnail album '.$albumName;
                            }
                        }else{
                            $response['success'] = false;
                            $response['message'] = 'Unable to create album '.$albumName;
                        }
                    }
                    else {
                        $response['success'] = false;
                        $response['message'] = 'Unable to create album '.$albumName.': Invalid directory name';
                    }
                }
            }
        }
        echo json_encode($response);
    }
}

public function editAlbumAjaxAction(){
    $this->view->disable();

    $dataArray = array();
    $dataArray['success'] = false;
    $dataArray['message'] = '<span class="label label-danger">Album not found.</span>';
    if($this->request->isPost() && $this->request->isAjax()){
        $albumID = $this->request->getPost('albumID');
        $album = Tblpartnersalbums::findFirst('albumID = '.$albumID);
        if($this->request->getPost('action')=='get'){
            $html = '
            <div id="editAlbumResult"></div>
            <input type="hidden" id="saveHiddenAlbumID" name="saveHiddenAlbumID" value="'.$albumID.'">
            <label>Album Name</label>
            <input type="text" id="saveAlbumName" name="saveAlbumName" value="'.$album->albumName.'" placeholder="Album Name" class="form-control">
            ';
            $dataArray['success'] = true;
            $dataArray['message'] = $html;
        }elseif($this->request->getPost('action')=='save'){
            $albumName = trim(filter_var($_POST['albumName'], FILTER_SANITIZE_STRING));
            if($album->albumName!=$albumName){
                $albumCheck = Tblpartnersalbums::findFirst('albumName="'.$albumName.'"');
                if($albumCheck == true){
                    $dataArray['success'] = false;
                    $dataArray['message'] = '<span class="label label-danger">Album name already exist</span>';
                }else{
                    $folder = '../public/img/assets/partnersPictures/'.$album->albumName;
                    $newFolder = '../public/img/assets/partnersPictures/'.$albumName;
                    chmod($folder, 0777);
                    rename($folder, $newFolder);

                    $album->assign(array('albumName' => $albumName));
                    $album->save();
                    $dataArray['success'] = true;
                    $dataArray['message'] = '<span class="label label-success">Album name updated.</span>';
                    chmod($newFolder, 0755);
                }
            }else{
                $dataArray['success'] = true;
                $dataArray['message'] = '<span class="label label-success">Album name updated.</span>';
            }
        }elseif($this->request->getPost('action')=='delete'){
            /*
            $folder = '../public/img/assets/partnersPictures/'.$album->partnerID.'/'.$album->albumName;
            $thumbFolder = '../public/img/assets/partnersPictures/'.$album->partnerID.'/'.$album->albumName.'/thumbs';
            chmod($thumbFolder, 0777);
            chmod($folder, 0777);
            $picture = Tblpartnerspictures::find('albumID='.$albumID);
            if($picture == true){
                foreach ($picture as $key => $value) {
                    unlink($folder.'/'.$value->pictureFilename);
                    unlink($thumbFolder.'/'.$value->pictureFilename);
                }
                rmdir($thumbFolder);
                rmdir($folder);
                $picture->delete();
            }else{
                rmdir($thumbFolder);
                rmdir($folder);
                $picture->delete();
            }
            */
            $folder = '../public/img/assets/partnersPictures/'.$album->partnerID.'/'.$album->albumName;
            if($this->_deletefolder($folder)){
                $album->delete();
                $dataArray['success'] = true;
                $dataArray['message'] = '<span>Album deleted.</span>';
            }else{
                $dataArray['success'] = false;
                $dataArray['message'] = '<span>Unable to delete folder.</span>';
            }
        }
    }
    
    echo json_encode($dataArray);
}


    //partners pictures
public function partnersPicturesAction($id=1, $album = null){

    $numberPage = $this->request->getQuery("page", "int");
    $numberPage = !empty($numberPage)?$numberPage:1;

    $this->view->menu = $this->_menuActive('partrole', array('partnerCurPartID'=>$id));
    $this->view->partnerID = $id;
    $partner = Tblpartners::findFirst('partnerID='.$id);
    $this->view->partner = $partner;

    $this->view->tab = $this->_partnersTab($id, 'pictures');


    if(is_null($album)){
        $this->view->albumView = true;

        $andWhere = '';

        if($this->request->isPost() && $this->request->getPost('clear_search')){
            $this->session->remove("picture_search_album_text");
            unset($_POST);
        }elseif($this->request->isPost() && $this->request->getPost('searchBtn')){
            $andWhere .= ' AND Tblpartnersalbums.albumName LIKE "%'.$this->request->getPost('search_album_text').'%"';
            $this->session->set("picture_search_album_text", $this->request->getPost('search_album_text'));
        }elseif($this->request->isPost()){
            $albumIDs = $this->request->getPost('tbl_id');
            if(!empty($albumIDs)){
                $param = null;
                foreach ($albumIDs as $keyAlbum) {
                    $keyAlbum = $this->filter->sanitize($keyAlbum, array("int"));
                    $param .= 'partnerID = '. $keyAlbum . ' OR ';
                    $delAlbum = Tblpartnersalbums::findFirst('albumID = '.$keyAlbum);
                    $albumPath = '../public/img/assets/partnersPictures/'.$id.'/'.$delAlbum->albumName;
                    if(file_exists($albumPath)){
                        if($this->_deletefolder($albumPath)){
                            $delAlbum->delete();
                        }
                    }else{
                        $delAlbum->delete();
                    }
                    
                }
                $this->flash->success("Selected albums were deleted successfully");
            }
        }

        if(!empty($this->session->get("picture_search_album_text"))){
            $andWhere .= ' AND Tblpartnersalbums.albumName LIKE "%'.$this->session->get('picture_search_album_text').'%"';
            $this->flash->notice('Search results for "<strong>' . $this->session->get("picture_search_album_text") .'</strong>"');
        }

        $phql = 'SELECT
        COUNT(Tblpartnerspictures.pictureID) as number_photos,
        Tblpartnersalbums.albumName,
        Tblpartnersalbums.dateCreated,
        Tblpartnersalbums.albumID
        FROM Tblpartnersalbums
        LEFT JOIN Tblpartnerspictures ON Tblpartnersalbums.albumID = Tblpartnerspictures.albumID
        WHERE Tblpartnersalbums.partnerID='.$id.'
        '.$andWhere.'
        GROUP BY Tblpartnersalbums.albumName
        ORDER BY Tblpartnersalbums.albumName';
        $result = $this->modelsManager->executeQuery($phql);

        $dataArray = array();
        foreach ($result as $key => $value) {            
            $dataArray[] = array(
                'picCount'=>(!$value->number_photos)?'empty':$value->number_photos,
                'albumID'=>$value->albumID,
                'albumName'=>$value->albumName,
                'dateCreated'=>$value->dateCreated
                );
        }

        $paginator = new Phalcon\Paginator\Adapter\NativeArray(array(
            "data" => $dataArray,
            "limit"=> 10,
            "page" => $numberPage
            ));
        $this->view->page = $paginator->getPaginate();

    }else{
        $this->view->albumView = false;
        $this->view->currentAlbum = $album;
        $albumCurrent = Tblpartnersalbums::findFirst('albumID='.$album);
        $this->view->albumCurrent = $albumCurrent->albumName;
        $this->view->albums = Tblpartnersalbums::find('partnerID = '.$id);

        $this->view->selectedAlbum = (!is_null($album))?$album:null;

        if($this->request->isPost() && $this->request->getPost('clear_search')){
            $this->session->remove("picture_search_text");
            unset($_POST);
        }
        if($this->request->isPost()){
            if($this->request->getPost('moveALbumID')!=''){
                $tbl_id = $this->request->getPost('tbl_id');
                $this->_movePictures($tbl_id, $_POST['moveALbumID']);
            }else{
                $pictureHiddenID = $this->request->getPost('pictureHiddenID');
                if(!empty($pictureHiddenID)){
                    $this->_deletePicture($pictureHiddenID, $id, $album);
                }else{
                    $tbl_id = $this->request->getPost('tbl_id');
                    if(!empty($tbl_id)){
                        $this->_deletePicture($tbl_id, $id, $album);
                    }
                }
            }
        }

        $where = 'WHERE Tblpartnerspictures.partnerID = '.$id;
        $where .= (!empty($album))?' AND Tblpartnerspictures.albumID = '.$album:'';

        if($this->request->isPost() && $this->request->getPost('searchBtn')){
            $where .= ' AND pictureCaption LIKE "%'.$this->request->getPost('search_text').'%"';
            $this->session->set("picture_search_text", $this->request->getPost('search_text'));
        }

        if(!empty($this->session->get("picture_search_text"))){
            $this->flash->notice('Search results for "<strong>' . $this->session->get("picture_search_text") .'</strong>"');
        }

        $phql = 'SELECT Tblpartnersalbums.albumName,
        Tblpartnerspictures.pictureID,
        Tblpartnerspictures.partnerID,
        Tblpartnerspictures.albumID,
        Tblpartnerspictures.pictureFilename,
        Tblpartnerspictures.pictureCaption,
        Tblpartnerspictures.pictureSize,
        Tblpartnerspictures.dateUploaded
        FROM Tblpartnerspictures
        LEFT JOIN Tblpartnersalbums ON Tblpartnersalbums.albumID = Tblpartnerspictures.albumID
        '.$where;
        $result = $this->modelsManager->executeQuery($phql);


        $dataArray = array();
        foreach ($result as $key => $value) {            
            $dataArray[] = array(
                'pictureID'=>$value->pictureID,
                'partnerID'=>$value->partnerID,
                'albumName'=>$value->albumName,
                'pictureFilename'=>$value->pictureFilename,
                'pictureCaption'=>$value->pictureCaption,
                'pictureSize'=>$this->_bytesToSize1024($value->pictureSize),
                'dateUploaded'=>$value->dateUploaded,
                'path'=>'/public/img/assets/partnersPictures/'.$value->partnerID.'/'.$value->albumName.'/'.$value->pictureFilename,
                'thumbPath'=>'/public/img/assets/partnersPictures/'.$value->partnerID.'/'.$value->albumName.'/thumbs/'.$value->pictureFilename
                );
        }

        $paginator = new Phalcon\Paginator\Adapter\NativeArray(array(
        //$paginator = new Phalcon\Paginator\Adapter\QueryBuilder(array(    
            "data" => $dataArray,
            "limit"=> 10,
            "page" => $numberPage
            ));
        $this->view->page = $paginator->getPaginate();
    }
}

private function _movePictures($id, $albumID){
    $param=null;
    if(is_array($id)){
        foreach ($id as $i) {
            $param .= 'pictureID = '. $this->filter->sanitize($i, array("int")) . ' OR ';
        }
        $param = substr($param, 0, -4);
    }else{
        $id = $this->filter->sanitize($id, array("int"));
        $param = 'pictureID=' . $id;
    }

    $picture = Tblpartnerspictures::find($param);
    if (!$picture) {
        $this->flash->error("Unable to move picture(s), please try again.");
    }else{
        $fromAlbum = Tblpartnersalbums::findFirst('albumID='.$picture[0]->albumID);
        $album = Tblpartnersalbums::findFirst('albumID='.$albumID);
        $fromFolder = '../public/img/assets/partnersPictures/'.$picture[0]->partnerID.'/'.$fromAlbum->albumName;
        $fromThumbFolder = '../public/img/assets/partnersPictures/'.$picture[0]->partnerID.'/'.$fromAlbum->albumName.'/thumbs';
        $folder = '../public/img/assets/partnersPictures/'.$album->partnerID.'/'.$album->albumName;
        $thumbFolder = '../public/img/assets/partnersPictures/'.$album->partnerID.'/'.$album->albumName.'/thumbs';
        #chmod($folder, 0777);
        #hmod($thumbFolder, 0777);
        #chmod($fromFolder, 0777);
        #chmod($fromThumbFolder, 0777);

        $albumName = $album->albumName;

        $movedCount = 0;
        for($x=0; $x < count($picture); $x++) {
            $fileName = $picture[$x]->pictureFilename;
            if(rename($fromFolder.'/'.$fileName, $folder.'/'.$fileName) && rename($fromThumbFolder.'/'.$fileName, $thumbFolder.'/'.$fileName)){
                $picture[$x]->assign(array('albumID' => $albumID));
                $picture[$x]->save();
                $movedCount++;                
            }
        }

        #chmod($folder, 0755);
        #chmod($thumbFolder, 0755);
        #chmod($fromFolder, 0755);
        #chmod($fromThumbFolder, 0755);

        $successMess = ($movedCount == 1)?'Picture moved to ':$movedCount.' Pictures moved to';
        $this->flash->success($successMess." ".$albumName);
    }
}

/*delete picture*/
private function _deletePicture($id, $partnerID, $albumID){
    $param=null;
    if(is_array($id)){
        $newid = array();
        foreach ($id as $i) {
            $param .= 'pictureID = '. $this->filter->sanitize($i, array("int")) . ' OR ';
        }
        $param = substr($param, 0, -4);
    }else{
        $id = $this->filter->sanitize($id, array("int"));
        $param = 'pictureID=' . $id;
    }

    $picture = Tblpartnerspictures::find($param);
    if (!$picture) {
        $this->flash->error("Unable to delete picture(s), please try again.");
    }else{
        $album = Tblpartnersalbums::find('albumID='.$albumID);
        $folder = '../public/img/assets/partnersPictures/'.$album[0]->partnerID.'/'.$album[0]->albumName.'/';
        $thumbFolder = '../public/img/assets/partnersPictures/'.$album[0]->partnerID.'/'.$album[0]->albumName.'/thumbs/';

        $deleteCount = 0;
        for($x=0; $x < count($picture); $x++) {
            $fileName = $picture[$x]->pictureFilename;

            if(unlink($folder.$fileName) && unlink($thumbFolder.$fileName)){
                $picture[$x]->delete();
                $deleteCount++;
            }
        }

        $successMess = ($deleteCount == 1)?'Picture deleted':$deleteCount.' Pictures deleted';
        $this->flash->success($successMess);
    }
}

private function _bytesToSize1024($bytes, $precision = 2)
{
        // human readable format -- powers of 1024
        //
    $unit = array('B','KB','MB','GB','TB','PB','EB');

    return @round(
        $bytes / pow(1024, ($i = floor(log($bytes, 1024)))), $precision
        ).' '.$unit[$i];
}


    /*
    *ajax upload for partner's pictures
    */

    public function partnerAjaxEditPictureAction($pictureID){
        $this->view->disable();
        $picture = Tblpartnerspictures::findFirst('pictureID='.$pictureID);

        if($this->request->isPost() && $this->request->isAjax()){
            $data = array();
            $pictureCaption = filter_var($_POST['pictureCaption'], FILTER_SANITIZE_STRING);
            if(!empty($pictureCaption)){
                if($picture->albumID != $_POST['editAlbumSelect']){
                    $album = Tblpartnersalbums::findFirst('albumID = '.$picture->albumID);
                    
                    $folder = '../public/img/assets/partnersPictures/'.$album->partnerID.'/'.$album->albumName.'/';
                    $thumbFolder = '../public/img/assets/partnersPictures/'.$album->partnerID.'/'.$album->albumName.'/thumbs/';

                    $changeAlbum = Tblpartnersalbums::findFirst('albumID = '.$_POST['editAlbumSelect']);
                    $changeFolder = '../public/img/assets/partnersPictures/'.$album->partnerID.'/'.$changeAlbum->albumName.'/';
                    $changeThumbFolder = '../public/img/assets/partnersPictures/'.$album->partnerID.'/'.$changeAlbum->albumName.'/thumbs/';

                    chmod($folder, 0777);
                    chmod($thumbFolder, 0777);

                    chmod($changeAlbum, 0777);
                    chmod($changeThumbFolder, 0777);

                    rename($thumbFolder.$picture->pictureFilename, $changeThumbFolder.$picture->pictureFilename);
                    rename($folder.$picture->pictureFilename, $changeFolder.$picture->pictureFilename);

                    $data = array(
                        'pictureCaption' => $pictureCaption,
                        'albumID' => $_POST['editAlbumSelect']
                        );
                    $picture->assign($data);
                    $picture->save();

                    $data['rename'] = $picture->pictureID;

                    chmod($folder, 0755);
                    chmod($thumbFolder, 0755);
                    chmod($changeAlbum, 0755);
                    chmod($changeThumbFolder, 0755);
                }else{
                    $picture->assign(array('pictureCaption' => $pictureCaption));
                    $picture->save();
                }
                $data['result'] = true;
                $data['newCaption'] = $pictureCaption;
                $data['resultText'] = '<span class="label label-success">You have successfully updated the picture\'s caption</span>';
            }else{
                $data['result'] = false;
                $data['resultText'] = '<span class="label label-danger">Please fill in caption</span>';
            }

            echo json_encode($data);
        }else{
            $albums = Tblpartnersalbums::find('partnerID = '.$picture->partnerID);
            $options = '';
            foreach ($albums as $key => $value) {
              $selected = ($picture->albumID == $value->albumID)?'selected':'';
              $options .= '<option '.$selected.' value="'.$value->albumID.'">'.$value->albumName.'</option>';
          }

          $album = Tblpartnersalbums::findFirst('albumID = '.$picture->albumID);
          echo '
          <select id="editAlbumSelect" name="editAlbumSelect" class="albums form-control">
            <option value="">--Album--</option>
            '.$options.'
        </select>
        <br />
        <div><img src="/public/img/assets/partnersPictures/'.$album->partnerID.'/'.$album->albumName.'/thumbs/'.$picture->pictureFilename.'" alt="'.$picture->pictureCaption.'" title="'.$picture->pictureCaption.'"></div>
        <br />
        <div>
            <input type="hidden" name="pictureID" id="pictureID" value="'.$pictureID.'">
            <label for="pictureCaption">Caption</label>
            <div id="editResult"></div>
            <textarea class="form-control" name="pictureCaption" id="pictureCaption">'.$picture->pictureCaption.'</textarea>
        </div>
        ';
    }
}

public function partnerAjaxUploadPictureAction($partnerID, $albumID){
    $this->view->disable();

    $album = Tblpartnersalbums::findFirst('albumID = '.$albumID);
    $albumName = $album->albumName;

    $data = array();
    $folder = '../public/img/assets/partnersPictures/'.$partnerID.'/'.$albumName.'/';
    $thumbFolder = '../public/img/assets/partnersPictures/'.$partnerID.'/'.$albumName.'/thumbs/';

    chmod($folder, 0777);
    chmod($thumbFolder, 0777);

    $filesResult = array();

    $maxFileSize = '';
    $validFileTypes = array(
        'png' => 'image/png',
        'jpe' => 'image/jpeg',
        'jpeg' => 'image/jpeg',
        'jpg' => 'image/jpeg',
        'gif' => 'image/gif',
        'bmp' => 'image/bmp'
        );

    if($this->request->hasFiles() && $this->request->isAjax()){
        $uploads = $this->request->getUploadedFiles();
        foreach($uploads as $upload){

            $filename = $upload->getname();
            $extension = strtolower(substr($filename, strrpos($filename, '.')+1));
            $mimeType = $upload->getRealType();
            $fileSize = $upload->getSize();

            $newName = md5(uniqid(rand(), true)).'-'.strtolower($filename);
            $path = $folder.$newName;
            $thumPath = $thumbFolder.$newName;


                //validate file type
            $validFiletype = false;
            if (array_key_exists($extension, $validFileTypes)) {
                $validFiletype = ($validFileTypes[$extension] == $mimeType)?true:false;
            }

            $fileStatus = '';
            if(!$validFiletype){
                $fileStatus = 'Invalid';
            }elseif(!$upload->moveTo($path)){
                $fileStatus = 'Failed';
            }else{
                $thumb = new Phalcon\Image\Adapter\GD($path);
                $thumb->resize(150, 150);
                $thumb->save($thumPath);

                $picture = new Tblpartnerspictures();
                $picture->assign(array(
                    'partnerID' => $partnerID,
                    'albumID' => $albumID,
                    'pictureFilename' => $newName,
                    'pictureSize'=>$fileSize,
                    'pictureCaption' => $filename,
                    'dateUploaded' => time()
                    ));
                $picture->save();
                $fileStatus = 'Success';
            }

            $filesResult[] = array(
                'caption'=>$filename,
                'filename'=>$newName,
                'status'=>$fileStatus
                );
        }

        $filesResultText = '';
        foreach ($filesResult as $key) {
            $filesResultText .= '<li>'.$key['caption'].' - '.$key['status'].'</li>';
        }

        $data['result'] = $filesResultText;
        chmod($folder, 0755);
        chmod($thumbFolder, 0755);
    }else{
        $response->redirect();
    }
    echo json_encode($data);
}

/*tab for partners*/
private function _partnersTab($partnerID, $active = null){
    $partnerUrl = $this->url->get().'admin/partnersinfo/'.$partnerID.'/';
    $tab = '<ul class="nav nav-tabs" role="tablist">';
    $tab .= ($active == '' || $active == 'edit')?'<li class="active">':'<li>';
    $tab .= '<a href="'.$partnerUrl.'">Program Information</a></li>';
    $tab .= ($active == 'events')?'<li class="active">':'<li>';
    $tab .= '<a href="'.$partnerUrl.'events">Current Events</a></li>';
    $tab .= ($active == 'pictures')?'<li class="active">':'<li>';
    $tab .= '<a href="/admin/partnersPictures/'.$partnerID.'">Pictures</a></li>';
    $tab .='</ul>';
    return $tab;
}

    /*
     *
     * Create new partner event
     *
     */
    public function createpartnereventAction($id){
        $this->view->menu = $this->_menuActive('partrole');

        $this->view->partnerID = $id;
        $partner = Tblpartners::findFirst('partnerID='.$id);
        $this->view->partner = $partner;
        $this->view->tab = $this->_partnersTab($id, 'events');
        $form = new CreatepartnersForm(null, array('createPartnerEvent'=>true));


        if($this->request->isPost() && $this->request->getPost('savePartnerEvent')){
            if($this->security->getSessionToken() == $this->request->getPost('csrf')){

                $eventExist = Tblpartnerevents::query()
                ->where("eventTitle = :name:")
                ->andWhere("partnerID = :partnerID:")
                ->bind(array("name" => $this->request->getPost('event_name'), "partnerID"=>$id))
                ->execute();

                if($eventExist->count() == true){
                    $this->flash->error('Event title already exist');
                    $error = true;
                }else{
                    if ($form->isValid($this->request->getPost()) != false) {
                        $event = new Tblpartnerevents();
                        $event->assign(array(
                            'partnerID'=>$id,
                            'eventTitle' => $this->request->getPost('event_name', 'striptags'),
                            'eventDate'=>strtotime($this->request->getPost('event_date', 'striptags')),
                            'eventVenue'=>$this->request->getPost('event_venue', 'striptags'),
                            'eventDetails' => $this->request->getPost('event_details'),
                            'dateCreated' => time()
                            ));
                        if (!$event->save()) {
                            $this->flash->error($event->getMessages());
                        } else {
                            $this->flash->success("New event was created successfully.");
                            Tag::resetInput();
                        }
                    }
                }
            }else{
                Tag::resetInput();
            }
        }

        $this->view->evtForm = $form;
    }

    /*
     * create new abk partner
     */

    public function createpartnerAction(){
        \Phalcon\Tag::prependTitle('Create User | ');
        $this->view->menu = $this->_menuActive('partrole');
        $form = new CreatepartnersForm(null, array('partner'=>true));
        
        if ($this->request->isPost()) {
            if($this->security->getSessionToken() == $this->request->getPost('csrf')){
                $roles = array();
                $roles[] = $partrole = 'partrole';
                if(empty($umrole) && empty($annrole) && empty($pmrole) && empty($partrole) && empty($townrole) && empty($conrole) && empty($pagerole) && empty($extrole) && empty($postrole)){
                    $this->view->roleError = "<div class='label label-danger'>At least one role should be selected.</div>";
                }
                if ($form->isValid($this->request->getPost()) != false) {
                    $userName = Tblusers::findFirst("userName='".$this->request->getPost('username', 'striptags')."'");
                    $userEmail = Tblusers::findFirst("userEmail='".$this->request->getPost('email', 'striptags')."'");
                    if($userName==true){
                        $this->flash->error("Username already taken");
                    }elseif($userEmail==true){
                        $this->flash->error("Email Address already taken");
                    }else{
                        $user = new Tblusers();
                        $password = sha1($this->request->getPost('password'));
                        $user->assign(array(
                            'userName' => $this->request->getPost('username', 'striptags'),
                            'userEmail' => $this->request->getPost('email', 'striptags'),
                            'userPassword' => $password,
                            'userFirstname' => $this->request->getPost('firstname', 'striptags'),
                            'userLastname' => $this->request->getPost('lastname', 'striptags'),
                            'userMiddlename' => $this->request->getPost('middlename', 'striptags'),
                            'userAddress' => $this->request->getPost('address', 'striptags'),
                            'userCompany' => $this->request->getPost('company', 'striptags'),
                            'userContact' => $this->request->getPost('contact', 'striptags'),
                            'userPosition' => $this->request->getPost('position', 'striptags'),
                            'userStatus' => $this->request->getPost('status', 'striptags'),
                            'userLevel' => 2,
                            'dateCreated' => time()
                            ));
if (!$user->save()) {
    $this->flash->error($user->getMessages());
} else {
    $this->_insertRoles($user->userID, $roles);
    $partner = new Tblpartners();
    $partner->assign(array(
        'userID'=>$user->userID,
        'partnerName'=>$this->request->getPost('partnerName', 'striptags'),
        'partnerInfo'=>$this->request->getPost('partnerName')
        ));
    $partner->save();
    $this->flash->success("Partner user was created successfully");
    $this->view->roleError = null;
    Tag::resetInput();
}
}
}else{
    echo 'invalid form';
}
}else{
    Tag::resetInput();
}
}
$this->view->form = $form;
}

public function editPartnerAction($userID){
    $this->view->menu = $this->_menuActive('partrole');
    $this->view->roleError = null;
    $user = Tblusers::findFirst($userID);
    $this->view->user = $user;
    $partner = Tblpartners::findFirst('userID='.$userID);
    $this->view->partner = $partner;
    $this->view->passError = null;
    $this->view->repassError = null;
    $form = new CreatepartnersForm(null, array('partner'=>true, 'edit'=>true));


    if ($this->request->isPost()) {
        if($this->request->getPost('update_password')){
            $validation = new Phalcon\Validation();
            $validation->add('password', new PresenceOf(array(
                'message' => 'The password is required',
                'cancelOnFail' => true
                )));
            $validation->add('password', new StringLength(array(
                'max' => 20,
                'min' => 8,
                'messageMaximum' => 'Thats an exagerated password.',
                'messageMinimum' => 'Password should be Minimum of 8 characters.'
                )));

            $validation->add('repassword', new PresenceOf(array(
                'message' => 'Retyping your password is required'
                )));
            $validation->add('repassword', new Confirmation(array(
                'message' => 'Password doesn\'t match confirmation',
                'with' => 'password'
                )));

            if(count($validation->validate($_POST))){
                foreach ($validation->getMessages()->filter('password') as $message) {
                    $this->view->passError .= "<div class='label label-danger'>".$message."</div> ";
                }
                foreach ($validation->getMessages()->filter('repassword') as $message) {
                    $this->view->repassError .= "<div class='label label-danger'>".$message."</div> ";
                }
            }else{
                $user->assign(array(
                    'userPassword' => sha1($this->request->getPost('password'))
                    ));

                if (!$user->save()) {
                    $this->flash->error($user->getMessages());

                } else {

                    $this->flash->success("User was updated successfully");

                    Tag::resetInput();
                }
            }
        }elseif($this->request->getPost('update_button')){

            if (!$form->isValid($_POST)) {
                echo 'invalid form';
                $form->getMessages();
            }else{
                $userName = Tblusers::findFirst("userName='".$this->request->getPost('username', 'striptags')."' AND userID != ".$userID);
                $userEmail = Tblusers::findFirst("userEmail='".$this->request->getPost('email', 'striptags')."' AND userID != ".$userID);
                if($userName==true){
                    $this->flash->error("Username already taken");
                }elseif($userEmail==true){
                    $this->flash->error("Email Address already taken");
                }else{
                    $user->assign(array(
                        'userName' => $this->request->getPost('username', 'striptags'),
                        'userEmail' => $this->request->getPost('email', 'striptags'),
                        'userFirstname' => $this->request->getPost('firstname', 'striptags'),
                        'userLastname' => $this->request->getPost('lastname', 'striptags'),
                        'userMiddlename' => $this->request->getPost('middlename', 'striptags'),
                        'userAddress' => $this->request->getPost('address', 'striptags'),
                        'userCompany' => $this->request->getPost('company', 'striptags'),
                        'userContact' => $this->request->getPost('contact', 'striptags'),
                        'userPosition' => $this->request->getPost('position', 'striptags'),
                        'userStatus' => $this->request->getPost('status', 'striptags'),
                        'dateCreated' => time()
                        ));

                    $hiddenPartnerName = $this->request->getPost('hiddenPartnerName', 'striptags');
                    $partnerName = $this->request->getPost('partnerName', 'striptags');

                    $checkPartnerName = false;
                    if($partnerName != $hiddenPartnerName){
                        $checkPartnerName = Tblpartners::findFirst('partnerName="'.$partnerName.'" AND userID != '.$userID);
                    }

                    if($checkPartnerName==true){
                        $this->flash->error("Partner name already taken");
                    }else{
                        $partner->assign(array(
                            'partnerName'=>$partnerName,
                            'partnerInfo'=>$this->request->getPost('partnerInfo')
                            ));
                        if (!$user->save() || !$partner->save()) {
                            $this->flash->error($user->getMessages());
                        } else {
                            $this->flash->success("User was updated successfully");
                            $this->view->roleError = null;
                        }
                    }
                }
            }
        }
    }

    $this->tag->setDefault("status", $user->userStatus);
    $this->view->form = $form;
}

private function _deleteAnn($id){
    $param=null;
    if(is_array($id)){
        $newid = array();
        foreach ($id as $i) {
            $param .= 'annID = '. $this->filter->sanitize($i, array("int")) . ' OR ';
        }
        $param = substr($param, 0, -4);
    }else{
        $id = $this->filter->sanitize($id, array("int"));
        $param = 'annID=' . $id;
    }

    $post = Tblannouncements::find($param);
    if (!$post) {
        $this->flash->error("Post was not found");
    }


    if (!$post->delete()) {
        foreach ($post->getMessages() as $message) {
            $this->flash->error((string) $message);
        }

        return $this->forward("admin/announcements");
    } else {
        $this->flash->success("Announcements was deleted");
    }
}